<?xml version="1.0" encoding="UTF-8" standalone="no"?>
<!-- Created with Inkscape (http://www.inkscape.org/) -->

<svg
   width="600mm"
   height="300mm"
   viewBox="0 0 600 300"
   version="1.1"
   id="svg2218"
   inkscape:version="1.1.2 (b8e25be833, 2022-02-05)"
   sodipodi:docname="print_fichier_masque_pt1.svg"
   xmlns:inkscape="http://www.inkscape.org/namespaces/inkscape"
   xmlns:sodipodi="http://sodipodi.sourceforge.net/DTD/sodipodi-0.dtd"
   xmlns="http://www.w3.org/2000/svg"
   xmlns:svg="http://www.w3.org/2000/svg">
  <sodipodi:namedview
     id="namedview2220"
     pagecolor="#ffffff"
     bordercolor="#666666"
     borderopacity="1.0"
     inkscape:pageshadow="2"
     inkscape:pageopacity="0.0"
     inkscape:pagecheckerboard="0"
     inkscape:document-units="mm"
     showgrid="false"
     inkscape:zoom="0.1799523"
     inkscape:cx="302.85804"
     inkscape:cy="486.23997"
     inkscape:window-width="1920"
     inkscape:window-height="1001"
     inkscape:window-x="-9"
     inkscape:window-y="-9"
     inkscape:window-maximized="1"
     inkscape:current-layer="layer1" />
  <defs
     id="defs2215" />
  <g
     inkscape:label="Calque 1"
     inkscape:groupmode="layer"
     id="layer1"
     transform="translate(497.53598,103.14165)">
    <path
       style="fill:none;stroke:#000000;stroke-width:0.352778;stroke-miterlimit:4;stroke-dasharray:none"
       id="bottom"
       d="m -537.36776,-68.141652 v 10.05 h -4 v 9.9 h 4 v 10.1 h -4 v 9.9 h 4 v 10.1 h -4 v 9.899998 h 4 V 1.9083454 h -4 v 9.9000006 h 4 v 10.1 h -4 v 9.9 h 4 v 10.1 h -4 v 9.9 h 4 v 10.1 h -4 v 9.9 h 4 v 10.099999 h -4 v 9.9 h 4 v 10.099995 h -4 v 9.9 h 4 v 10.1 h -4 v 9.9 h 4 v 10.1 h -4 v 9.90001 h 4 v 10.05 h -10.83947 v -4 h -10.68948 v 4 h -10.88947 v -4 h -10.68948 v 4 h -10.88947 v -4 h -10.68948 v 4 h -10.88947 v -4 h -10.68947 v 4 h -10.88948 v -4 h -10.68952 v 4 h -10.88953 v -4 h -10.68949 v 4 h -10.88947 v -4 h -10.68947 v 4 h -10.88948 v -4 h -10.68947 v 4 h -10.88948 v -4 h -10.68948 v 4 h -10.83947 v -10.05 h 4 v -9.90001 h -4 v -10.1 h 4 v -9.9 h -4 v -10.1 h 4 v -9.9 h -4 V 91.808345 h 4 v -9.9 h -4 V 71.808346 h 4 v -9.9 h -4 v -10.1 h 4 v -9.9 h -4 v -10.1 h 4 v -9.9 h -4 v -10.1 h 4 V 1.9083454 h -4 V -8.191654 h 4 v -9.899998 h -4 v -10.1 h 4 v -9.9 h -4 v -10.1 h 4 v -9.9 h -4 v -10.05 h 10.83947 v 4 h 10.68948 v -4 h 10.88948 v 4 h 10.68947 v -4 h 10.88948 v 4 h 10.68947 v -4 h 10.88947 v 4 h 10.68949 v -4 h 10.88953 v 4 h 10.68952 v -4 h 10.88948 v 4 h 10.68947 v -4 h 10.88947 v 4 h 10.68948 v -4 h 10.88947 v 4 h 10.68948 v -4 h 10.88947 v 4 h 10.68948 v -4 z" />
    <g
       id="g2329"
       transform="matrix(-0.28222223,0,0,-0.28222223,78.142464,374.85836)"
       style="stroke:#000000">
      <path
         style="fill:#ffffff;stroke:#000000;stroke-width:1.25;stroke-miterlimit:4;stroke-dasharray:none"
         id="back"
         transform="translate(14.173228,754.72441)"
         d="M 0,0 H 814.96063 V 38.309899 H 800.7874 v 37.778402 h 14.17323 V 114.57537 H 800.7874 v 37.7784 h 14.17323 v 38.48706 H 800.7874 v 37.77841 h 14.17323 V 267.1063 H 800.7874 v 37.7784 h 14.17323 v 38.48707 H 800.7874 v 37.7784 h 14.17323 v 38.48706 H 800.7874 v 37.77841 h 14.17323 V 495.9027 H 800.7874 v 37.7784 h 14.17323 v 38.48707 H 800.7874 v 37.7784 h 14.17323 v 38.48706 H 800.7874 v 37.77841 h 14.17323 V 724.6991 H 800.7874 v 37.7784 h 14.17323 v 38.3099 h -35.25591 v 14.17323 h -35.7874 V 800.7874 h -35.07874 v 14.17323 h -35.7874 V 800.7874 h -35.07874 v 14.17323 h -35.7874 V 800.7874 H 567.1063 v 14.17323 H 531.3189 V 800.7874 h -35.07874 v 14.17323 h -35.7874 V 800.7874 h -35.07874 v 14.17323 H 389.58661 V 800.7874 h -35.07874 v 14.17323 h -35.7874 V 800.7874 h -35.07874 v 14.17323 h -35.7874 V 800.7874 h -35.07874 v 14.17323 h -35.7874 V 800.7874 h -35.07874 v 14.17323 h -35.7874 V 800.7874 H 71.043307 v 14.17323 H 35.255906 V 800.7874 H 0 V 762.4775 H 14.173228 V 724.6991 H 0 V 686.21204 H 14.173228 V 648.43363 H 0 v -38.48706 h 14.173228 v -37.7784 H 0 V 533.6811 H 14.173228 V 495.9027 H 0 V 457.41564 H 14.173228 V 419.63723 H 0 v -38.48706 h 14.173228 v -37.7784 H 0 V 304.8847 H 14.173228 V 267.1063 H 0 V 228.61924 H 14.173228 V 190.84083 H 0 v -38.48706 h 14.173228 v -37.7784 H 0 V 76.088301 H 14.173228 V 38.309899 H 0 Z" />
      <circle
         style="display:inline;fill:none;fill-opacity:1;stroke:#000000;stroke-width:1.25;stroke-miterlimit:4;stroke-dasharray:none;stroke-opacity:1"
         id="circle1560-9"
         cx="1481.1023"
         cy="-102.75574"
         r="26.536453"
         transform="rotate(90)" />
      <circle
         style="display:inline;fill:none;fill-opacity:1;stroke:#000000;stroke-width:1.25;stroke-miterlimit:4;stroke-dasharray:none;stroke-opacity:1"
         id="circle1562-1"
         cx="1374.8031"
         cy="-102.75574"
         r="26.536453"
         transform="rotate(90)" />
      <circle
         style="display:inline;fill:none;fill-opacity:1;stroke:#000000;stroke-width:1.25;stroke-miterlimit:4;stroke-dasharray:none;stroke-opacity:1"
         id="circle1564-5"
         cx="1481.1023"
         cy="-209.05495"
         r="26.536453"
         transform="rotate(90)" />
      <circle
         style="display:inline;fill:none;fill-opacity:1;stroke:#000000;stroke-width:1.25;stroke-miterlimit:4;stroke-dasharray:none;stroke-opacity:1"
         id="circle1566-1"
         cx="1374.8031"
         cy="-209.05495"
         r="26.536453"
         transform="rotate(90)" />
      <circle
         style="display:inline;fill:none;fill-opacity:1;stroke:#000000;stroke-width:1.25;stroke-miterlimit:4;stroke-dasharray:none;stroke-opacity:1"
         id="circle1568-0"
         cx="-949.60638"
         cy="-102.75574"
         r="26.536453"
         transform="matrix(0,-1,-1,0,0,0)" />
      <circle
         style="display:inline;fill:none;fill-opacity:1;stroke:#000000;stroke-width:1.25;stroke-miterlimit:4;stroke-dasharray:none;stroke-opacity:1"
         id="circle1570-7"
         cx="-1055.9055"
         cy="-102.75574"
         r="26.536453"
         transform="matrix(0,-1,-1,0,0,0)" />
      <circle
         style="display:inline;fill:none;fill-opacity:1;stroke:#000000;stroke-width:1.25;stroke-miterlimit:4;stroke-dasharray:none;stroke-opacity:1"
         id="circle1572-5"
         cx="-949.60638"
         cy="-209.05495"
         r="26.536453"
         transform="matrix(0,-1,-1,0,0,0)" />
      <circle
         style="display:inline;fill:none;fill-opacity:1;stroke:#000000;stroke-width:1.25;stroke-miterlimit:4;stroke-dasharray:none;stroke-opacity:1"
         id="circle1574-1"
         cx="-1055.9055"
         cy="-209.05495"
         r="26.536453"
         transform="matrix(0,-1,-1,0,0,0)" />
      <circle
         style="display:inline;fill:none;fill-opacity:1;stroke:#000000;stroke-width:1.25;stroke-miterlimit:4;stroke-dasharray:none;stroke-opacity:1"
         id="circle1576-0"
         cx="-1162.2047"
         cy="-102.75574"
         r="26.536453"
         transform="matrix(0,-1,-1,0,0,0)" />
      <circle
         style="display:inline;fill:none;fill-opacity:1;stroke:#000000;stroke-width:1.25;stroke-miterlimit:4;stroke-dasharray:none;stroke-opacity:1"
         id="circle1578-0"
         cx="-1268.5039"
         cy="-102.75574"
         r="26.536453"
         transform="matrix(0,-1,-1,0,0,0)" />
      <circle
         style="display:inline;fill:none;fill-opacity:1;stroke:#000000;stroke-width:1.25;stroke-miterlimit:4;stroke-dasharray:none;stroke-opacity:1"
         id="circle1580-2"
         cx="-1162.2047"
         cy="-209.05537"
         r="26.536453"
         transform="matrix(0,-1,-1,0,0,0)" />
      <circle
         style="display:inline;fill:none;fill-opacity:1;stroke:#000000;stroke-width:1.25;stroke-miterlimit:4;stroke-dasharray:none;stroke-opacity:1"
         id="circle1582-0"
         cx="-1268.5039"
         cy="-209.05537"
         r="26.536453"
         transform="matrix(0,-1,-1,0,0,0)" />
      <circle
         style="display:inline;fill:none;fill-opacity:1;stroke:#000000;stroke-width:1.25;stroke-miterlimit:4;stroke-dasharray:none;stroke-opacity:1"
         id="circle1584-1"
         cx="1481.1023"
         cy="-315.35403"
         r="26.536453"
         transform="rotate(90)" />
      <circle
         style="display:inline;fill:none;fill-opacity:1;stroke:#000000;stroke-width:1.25;stroke-miterlimit:4;stroke-dasharray:none;stroke-opacity:1"
         id="circle1586-0"
         cx="1374.8031"
         cy="-315.35403"
         r="26.536453"
         transform="rotate(90)" />
      <circle
         style="display:inline;fill:none;fill-opacity:1;stroke:#000000;stroke-width:1.25;stroke-miterlimit:4;stroke-dasharray:none;stroke-opacity:1"
         id="circle1588-5"
         cx="1481.1023"
         cy="-421.65332"
         r="26.536453"
         transform="rotate(90)" />
      <circle
         style="display:inline;fill:none;fill-opacity:1;stroke:#000000;stroke-width:1.25;stroke-miterlimit:4;stroke-dasharray:none;stroke-opacity:1"
         id="circle1590-8"
         cx="1374.8031"
         cy="-421.65332"
         r="26.536453"
         transform="rotate(90)" />
      <circle
         style="display:inline;fill:none;fill-opacity:1;stroke:#000000;stroke-width:1.25;stroke-miterlimit:4;stroke-dasharray:none;stroke-opacity:1"
         id="circle1592-1"
         cx="-949.60638"
         cy="-315.35403"
         r="26.536453"
         transform="matrix(0,-1,-1,0,0,0)" />
      <circle
         style="display:inline;fill:none;fill-opacity:1;stroke:#000000;stroke-width:1.25;stroke-miterlimit:4;stroke-dasharray:none;stroke-opacity:1"
         id="circle1594-2"
         cx="-1055.9055"
         cy="-315.35403"
         r="26.536453"
         transform="matrix(0,-1,-1,0,0,0)" />
      <circle
         style="display:inline;fill:none;fill-opacity:1;stroke:#000000;stroke-width:1.25;stroke-miterlimit:4;stroke-dasharray:none;stroke-opacity:1"
         id="circle1596-0"
         cx="-949.60638"
         cy="-421.65332"
         r="26.536453"
         transform="matrix(0,-1,-1,0,0,0)" />
      <circle
         style="display:inline;fill:none;fill-opacity:1;stroke:#000000;stroke-width:1.25;stroke-miterlimit:4;stroke-dasharray:none;stroke-opacity:1"
         id="circle1598-9"
         cx="-1055.9055"
         cy="-421.65332"
         r="26.536453"
         transform="matrix(0,-1,-1,0,0,0)" />
      <circle
         style="display:inline;fill:none;fill-opacity:1;stroke:#000000;stroke-width:1.25;stroke-miterlimit:4;stroke-dasharray:none;stroke-opacity:1"
         id="circle1600-5"
         cx="-1162.2047"
         cy="-315.35403"
         r="26.536453"
         transform="matrix(0,-1,-1,0,0,0)" />
      <circle
         style="display:inline;fill:none;fill-opacity:1;stroke:#000000;stroke-width:1.25;stroke-miterlimit:4;stroke-dasharray:none;stroke-opacity:1"
         id="circle1602-0"
         cx="-1268.5039"
         cy="-315.35403"
         r="26.536453"
         transform="matrix(0,-1,-1,0,0,0)" />
      <circle
         style="display:inline;fill:none;fill-opacity:1;stroke:#000000;stroke-width:1.25;stroke-miterlimit:4;stroke-dasharray:none;stroke-opacity:1"
         id="circle1604-2"
         cx="-1162.2047"
         cy="-421.65375"
         r="26.536453"
         transform="matrix(0,-1,-1,0,0,0)" />
      <circle
         style="display:inline;fill:none;fill-opacity:1;stroke:#000000;stroke-width:1.25;stroke-miterlimit:4;stroke-dasharray:none;stroke-opacity:1"
         id="circle1606-4"
         cx="-1268.5039"
         cy="-421.65375"
         r="26.536453"
         transform="matrix(0,-1,-1,0,0,0)" />
      <circle
         style="display:inline;fill:none;fill-opacity:1;stroke:#000000;stroke-width:1.25;stroke-miterlimit:4;stroke-dasharray:none;stroke-opacity:1"
         id="circle1608-8"
         cx="1481.1023"
         cy="-527.95251"
         r="26.536453"
         transform="rotate(90)" />
      <circle
         style="display:inline;fill:none;fill-opacity:1;stroke:#000000;stroke-width:1.25;stroke-miterlimit:4;stroke-dasharray:none;stroke-opacity:1"
         id="circle1610-3"
         cx="1374.8031"
         cy="-527.95251"
         r="26.536453"
         transform="rotate(90)" />
      <circle
         style="display:inline;fill:none;fill-opacity:1;stroke:#000000;stroke-width:1.25;stroke-miterlimit:4;stroke-dasharray:none;stroke-opacity:1"
         id="circle1612-5"
         cx="1481.1023"
         cy="-634.25171"
         r="26.536453"
         transform="rotate(90)" />
      <circle
         style="display:inline;fill:none;fill-opacity:1;stroke:#000000;stroke-width:1.25;stroke-miterlimit:4;stroke-dasharray:none;stroke-opacity:1"
         id="circle1614-8"
         cx="1374.8031"
         cy="-634.25171"
         r="26.536453"
         transform="rotate(90)" />
      <circle
         style="display:inline;fill:none;fill-opacity:1;stroke:#000000;stroke-width:1.25;stroke-miterlimit:4;stroke-dasharray:none;stroke-opacity:1"
         id="circle1616-1"
         cx="-949.60638"
         cy="-527.95251"
         r="26.536453"
         transform="matrix(0,-1,-1,0,0,0)" />
      <circle
         style="display:inline;fill:none;fill-opacity:1;stroke:#000000;stroke-width:1.25;stroke-miterlimit:4;stroke-dasharray:none;stroke-opacity:1"
         id="circle1618-7"
         cx="-1055.9055"
         cy="-527.95251"
         r="26.536453"
         transform="matrix(0,-1,-1,0,0,0)" />
      <circle
         style="display:inline;fill:none;fill-opacity:1;stroke:#000000;stroke-width:1.25;stroke-miterlimit:4;stroke-dasharray:none;stroke-opacity:1"
         id="circle1620-5"
         cx="-949.60638"
         cy="-634.25214"
         r="26.536453"
         transform="matrix(0,-1,-1,0,0,0)" />
      <circle
         style="display:inline;fill:none;fill-opacity:1;stroke:#000000;stroke-width:1.25;stroke-miterlimit:4;stroke-dasharray:none;stroke-opacity:1"
         id="circle1622-4"
         cx="-1055.9055"
         cy="-634.25214"
         r="26.536453"
         transform="matrix(0,-1,-1,0,0,0)" />
      <circle
         style="display:inline;fill:none;fill-opacity:1;stroke:#000000;stroke-width:1.25;stroke-miterlimit:4;stroke-dasharray:none;stroke-opacity:1"
         id="circle1624-6"
         cx="-1162.2047"
         cy="-527.95294"
         r="26.536453"
         transform="matrix(0,-1,-1,0,0,0)" />
      <circle
         style="display:inline;fill:none;fill-opacity:1;stroke:#000000;stroke-width:1.25;stroke-miterlimit:4;stroke-dasharray:none;stroke-opacity:1"
         id="circle1626-7"
         cx="-1268.5039"
         cy="-527.95294"
         r="26.536453"
         transform="matrix(0,-1,-1,0,0,0)" />
      <circle
         style="display:inline;fill:none;fill-opacity:1;stroke:#000000;stroke-width:1.25;stroke-miterlimit:4;stroke-dasharray:none;stroke-opacity:1"
         id="circle1628-9"
         cx="-1162.2047"
         cy="-634.25214"
         r="26.536453"
         transform="matrix(0,-1,-1,0,0,0)" />
      <circle
         style="display:inline;fill:none;fill-opacity:1;stroke:#000000;stroke-width:1.25;stroke-miterlimit:4;stroke-dasharray:none;stroke-opacity:1"
         id="circle1630-0"
         cx="-1268.5039"
         cy="-634.25214"
         r="26.536453"
         transform="matrix(0,-1,-1,0,0,0)" />
      <circle
         style="display:inline;fill:none;fill-opacity:1;stroke:#000000;stroke-width:1.25;stroke-miterlimit:4;stroke-dasharray:none;stroke-opacity:1"
         id="circle1632-2"
         cx="1481.1023"
         cy="-740.5509"
         r="26.536453"
         transform="rotate(90)" />
      <circle
         style="display:inline;fill:none;fill-opacity:1;stroke:#000000;stroke-width:1.25;stroke-miterlimit:4;stroke-dasharray:none;stroke-opacity:1"
         id="circle1634-1"
         cx="1374.8031"
         cy="-740.5509"
         r="26.536453"
         transform="rotate(90)" />
      <circle
         style="display:inline;fill:none;fill-opacity:1;stroke:#000000;stroke-width:1.25;stroke-miterlimit:4;stroke-dasharray:none;stroke-opacity:1"
         id="circle1636-2"
         cx="-949.60638"
         cy="-740.55133"
         r="26.536453"
         transform="matrix(0,-1,-1,0,0,0)" />
      <circle
         style="display:inline;fill:none;fill-opacity:1;stroke:#000000;stroke-width:1.25;stroke-miterlimit:4;stroke-dasharray:none;stroke-opacity:1"
         id="circle1638-7"
         cx="-1055.9055"
         cy="-740.55133"
         r="26.536453"
         transform="matrix(0,-1,-1,0,0,0)" />
      <circle
         style="display:inline;fill:none;fill-opacity:1;stroke:#000000;stroke-width:1.25;stroke-miterlimit:4;stroke-dasharray:none;stroke-opacity:1"
         id="circle1640-6"
         cx="-1162.2047"
         cy="-740.55133"
         r="26.536453"
         transform="matrix(0,-1,-1,0,0,0)" />
      <circle
         style="display:inline;fill:none;fill-opacity:1;stroke:#000000;stroke-width:1.25;stroke-miterlimit:4;stroke-dasharray:none;stroke-opacity:1"
         id="circle1642-9"
         cx="-1268.5039"
         cy="-740.55133"
         r="26.536453"
         transform="matrix(0,-1,-1,0,0,0)" />
      <circle
         style="display:inline;fill:none;fill-opacity:1;stroke:#000000;stroke-width:1.25;stroke-miterlimit:4;stroke-dasharray:none;stroke-opacity:1"
         id="circle1644-6"
         cx="-843.30713"
         cy="-102.75574"
         r="26.536453"
         transform="matrix(0,-1,-1,0,0,0)" />
      <circle
         style="display:inline;fill:none;fill-opacity:1;stroke:#000000;stroke-width:1.25;stroke-miterlimit:4;stroke-dasharray:none;stroke-opacity:1"
         id="circle1646-5"
         cx="-843.30713"
         cy="-209.05495"
         r="26.536453"
         transform="matrix(0,-1,-1,0,0,0)" />
      <circle
         style="display:inline;fill:none;fill-opacity:1;stroke:#000000;stroke-width:1.25;stroke-miterlimit:4;stroke-dasharray:none;stroke-opacity:1"
         id="circle1648-3"
         cx="-843.30713"
         cy="-315.35403"
         r="26.536453"
         transform="matrix(0,-1,-1,0,0,0)" />
      <circle
         style="display:inline;fill:none;fill-opacity:1;stroke:#000000;stroke-width:1.25;stroke-miterlimit:4;stroke-dasharray:none;stroke-opacity:1"
         id="circle1650-5"
         cx="-843.30713"
         cy="-421.65332"
         r="26.536453"
         transform="matrix(0,-1,-1,0,0,0)" />
      <circle
         style="display:inline;fill:none;fill-opacity:1;stroke:#000000;stroke-width:1.25;stroke-miterlimit:4;stroke-dasharray:none;stroke-opacity:1"
         id="circle1652-0"
         cx="-843.30713"
         cy="-527.95251"
         r="26.536453"
         transform="matrix(0,-1,-1,0,0,0)" />
      <circle
         style="display:inline;fill:none;fill-opacity:1;stroke:#000000;stroke-width:1.25;stroke-miterlimit:4;stroke-dasharray:none;stroke-opacity:1"
         id="circle1654-0"
         cx="-843.30713"
         cy="-634.25214"
         r="26.536453"
         transform="matrix(0,-1,-1,0,0,0)" />
      <circle
         style="display:inline;fill:none;fill-opacity:1;stroke:#000000;stroke-width:1.25;stroke-miterlimit:4;stroke-dasharray:none;stroke-opacity:1"
         id="circle1656-5"
         cx="-843.30713"
         cy="-740.55133"
         r="26.536453"
         transform="matrix(0,-1,-1,0,0,0)" />
    </g>
    <g
       id="g2882"
       transform="rotate(180,77.630927,120.7377)"
       style="stroke:#000000">
      <path
         style="fill:#ffffff;stroke:#000000;stroke-width:0.352778;stroke-miterlimit:4;stroke-dasharray:none"
         id="right_side"
         d="m 359.63185,79.617051 h 189 v 10.711915 h 4 v 10.861884 h -4 v 10.66191 h 4 v 10.86191 h -4 v 10.66191 h 4 v 10.86191 h -4 v 10.66191 h 4 v 10.86188 h -4 v 10.66191 h 4 v 10.86191 h -4 v 10.66191 h 4 v 10.86191 h -4 v 10.66191 h 4 v 10.86188 h -4 v 10.66191 h 4 v 10.86191 h -4 v 10.66191 h 4 v 10.86191 h -4 v 10.66191 h 4 v 10.86188 h -4 v 10.71192 h -6.73947 v 3.99999 H 531.0029 v -3.99999 h -10.68947 v 3.99999 h -10.88947 v -3.99999 h -10.68948 v 3.99999 h -10.88947 v -3.99999 h -10.68948 v 3.99999 h -10.88947 v -3.99999 h -10.68947 v 3.99999 h -10.88948 v -3.99999 h -10.68947 v 3.99999 h -10.88947 v -3.99999 h -10.68948 v 3.99999 h -10.88947 v -3.99999 h -10.68948 v 3.99999 h -10.88947 v -3.99999 h -10.68948 v 3.99999 h -10.88947 v -3.99999 h -6.73947 v -10.71192 h -4 v -10.86188 h 4 v -10.66191 h -4 v -10.86191 h 4 v -10.66191 h -4 v -10.86191 h 4 v -10.66191 h -4 v -10.86188 h 4 v -10.66191 h -4 v -10.86191 h 4 V 187.2861 h -4 v -10.86191 h 4 v -10.66191 h -4 V 154.9004 h 4 v -10.66191 h -4 v -10.86191 h 4 v -10.66191 h -4 v -10.86191 h 4 v -10.66191 h -4 V 90.328966 h 4 V 79.617051 Z" />
      <g
         id="g1651"
         transform="rotate(180,242.8777,-416.30284)"
         style="display:inline;stroke:#000000;stroke-width:0.352778;stroke-miterlimit:4;stroke-dasharray:none">
        <circle
           style="fill:none;stroke:#000000;stroke-width:0.352778;stroke-miterlimit:4;stroke-dasharray:none"
           id="circle1567"
           cx="39.376476"
           cy="1117.2228"
           r="7.4891772"
           transform="scale(-1)" />
        <circle
           style="fill:none;stroke:#000000;stroke-width:0.352778;stroke-miterlimit:4;stroke-dasharray:none"
           id="circle1569"
           cx="9.3764162"
           cy="1117.2228"
           r="7.4891772"
           transform="scale(-1)" />
        <circle
           style="fill:none;stroke:#000000;stroke-width:0.352778;stroke-miterlimit:4;stroke-dasharray:none"
           id="circle1571"
           cx="39.376476"
           cy="1087.2228"
           r="7.4891772"
           transform="scale(-1)" />
        <circle
           style="fill:none;stroke:#000000;stroke-width:0.352778;stroke-miterlimit:4;stroke-dasharray:none"
           id="circle1573"
           cx="9.3764162"
           cy="1087.2228"
           r="7.4891772"
           transform="scale(-1)" />
        <circle
           style="fill:none;stroke:#000000;stroke-width:0.352778;stroke-miterlimit:4;stroke-dasharray:none"
           id="circle1575"
           cx="110.62358"
           cy="1117.2228"
           r="7.4891772"
           transform="scale(1,-1)" />
        <circle
           style="fill:none;stroke:#000000;stroke-width:0.352778;stroke-miterlimit:4;stroke-dasharray:none"
           id="circle1577"
           cx="80.623581"
           cy="1117.2228"
           r="7.4891772"
           transform="scale(1,-1)" />
        <circle
           style="fill:none;stroke:#000000;stroke-width:0.352778;stroke-miterlimit:4;stroke-dasharray:none"
           id="circle1579"
           cx="110.62358"
           cy="1087.2228"
           r="7.4891772"
           transform="scale(1,-1)" />
        <circle
           style="fill:none;stroke:#000000;stroke-width:0.352778;stroke-miterlimit:4;stroke-dasharray:none"
           id="circle1581"
           cx="80.623581"
           cy="1087.2228"
           r="7.4891772"
           transform="scale(1,-1)" />
        <circle
           style="fill:none;stroke:#000000;stroke-width:0.352778;stroke-miterlimit:4;stroke-dasharray:none"
           id="circle1583"
           cx="50.623585"
           cy="1117.2227"
           r="7.4891772"
           transform="scale(1,-1)" />
        <circle
           style="fill:none;stroke:#000000;stroke-width:0.352778;stroke-miterlimit:4;stroke-dasharray:none"
           id="circle1585"
           cx="20.623524"
           cy="1117.2227"
           r="7.4891772"
           transform="scale(1,-1)" />
        <circle
           style="fill:none;stroke:#000000;stroke-width:0.352778;stroke-miterlimit:4;stroke-dasharray:none"
           id="circle1587"
           cx="50.623585"
           cy="1087.2228"
           r="7.4891772"
           transform="scale(1,-1)" />
        <circle
           style="fill:none;stroke:#000000;stroke-width:0.352778;stroke-miterlimit:4;stroke-dasharray:none"
           id="circle1589"
           cx="20.623524"
           cy="1087.2228"
           r="7.4891772"
           transform="scale(1,-1)" />
        <circle
           style="fill:none;stroke:#000000;stroke-width:0.352778;stroke-miterlimit:4;stroke-dasharray:none;stroke-opacity:1"
           id="circle1591"
           cx="39.376476"
           cy="1057.2228"
           r="7.4891772"
           transform="scale(-1)" />
        <circle
           style="fill:none;stroke:#000000;stroke-width:0.352778;stroke-miterlimit:4;stroke-dasharray:none;stroke-opacity:1"
           id="circle1593"
           cx="9.3764162"
           cy="1057.2228"
           r="7.4891772"
           transform="scale(-1)" />
        <circle
           style="fill:none;fill-opacity:1;stroke:#000000;stroke-width:0.352778;stroke-miterlimit:4;stroke-dasharray:none;stroke-opacity:1"
           id="circle1595"
           cx="39.376476"
           cy="1027.2227"
           r="7.4891772"
           transform="scale(-1)" />
        <circle
           style="fill:none;fill-opacity:1;stroke:#000000;stroke-width:0.352778;stroke-miterlimit:4;stroke-dasharray:none;stroke-opacity:1"
           id="circle1597"
           cx="9.3764162"
           cy="1027.2227"
           r="7.4891772"
           transform="scale(-1)" />
        <circle
           style="fill:none;stroke:#000000;stroke-width:0.352778;stroke-miterlimit:4;stroke-dasharray:none;stroke-opacity:1"
           id="circle1599"
           cx="110.62358"
           cy="1057.2228"
           r="7.4891772"
           transform="scale(1,-1)" />
        <circle
           style="fill:none;stroke:#000000;stroke-width:0.352778;stroke-miterlimit:4;stroke-dasharray:none;stroke-opacity:1"
           id="circle1601"
           cx="80.623581"
           cy="1057.2228"
           r="7.4891772"
           transform="scale(1,-1)" />
        <circle
           style="fill:none;fill-opacity:1;stroke:#000000;stroke-width:0.352778;stroke-miterlimit:4;stroke-dasharray:none;stroke-opacity:1"
           id="circle1603"
           cx="110.62358"
           cy="1027.2227"
           r="7.4891772"
           transform="scale(1,-1)" />
        <circle
           style="fill:none;fill-opacity:1;stroke:#000000;stroke-width:0.352778;stroke-miterlimit:4;stroke-dasharray:none;stroke-opacity:1"
           id="circle1605"
           cx="80.623581"
           cy="1027.2227"
           r="7.4891772"
           transform="scale(1,-1)" />
        <circle
           style="fill:none;stroke:#000000;stroke-width:0.352778;stroke-miterlimit:4;stroke-dasharray:none;stroke-opacity:1"
           id="circle1607"
           cx="50.623585"
           cy="1057.2227"
           r="7.4891772"
           transform="scale(1,-1)" />
        <circle
           style="fill:none;stroke:#000000;stroke-width:0.352778;stroke-miterlimit:4;stroke-dasharray:none;stroke-opacity:1"
           id="circle1609"
           cx="20.623524"
           cy="1057.2227"
           r="7.4891772"
           transform="scale(1,-1)" />
        <circle
           style="fill:none;fill-opacity:1;stroke:#000000;stroke-width:0.352778;stroke-miterlimit:4;stroke-dasharray:none;stroke-opacity:1"
           id="circle1611"
           cx="50.623585"
           cy="1027.2227"
           r="7.4891772"
           transform="scale(1,-1)" />
        <circle
           style="fill:none;fill-opacity:1;stroke:#000000;stroke-width:0.352778;stroke-miterlimit:4;stroke-dasharray:none;stroke-opacity:1"
           id="circle1613"
           cx="20.623524"
           cy="1027.2227"
           r="7.4891772"
           transform="scale(1,-1)" />
        <circle
           style="fill:none;fill-opacity:1;stroke:#000000;stroke-width:0.352778;stroke-miterlimit:4;stroke-dasharray:none;stroke-opacity:1"
           id="circle1615"
           cx="39.376476"
           cy="997.22272"
           r="7.4891772"
           transform="scale(-1)" />
        <circle
           style="fill:none;fill-opacity:1;stroke:#000000;stroke-width:0.352778;stroke-miterlimit:4;stroke-dasharray:none;stroke-opacity:1"
           id="circle1617"
           cx="9.3764162"
           cy="997.22272"
           r="7.4891772"
           transform="scale(-1)" />
        <circle
           style="fill:none;fill-opacity:1;stroke:#000000;stroke-width:0.352778;stroke-miterlimit:4;stroke-dasharray:none;stroke-opacity:1"
           id="circle1619"
           cx="39.376476"
           cy="967.22272"
           r="7.4891772"
           transform="scale(-1)" />
        <circle
           style="fill:none;fill-opacity:1;stroke:#000000;stroke-width:0.352778;stroke-miterlimit:4;stroke-dasharray:none;stroke-opacity:1"
           id="circle1621"
           cx="9.3764162"
           cy="967.22272"
           r="7.4891772"
           transform="scale(-1)" />
        <circle
           style="fill:none;fill-opacity:1;stroke:#000000;stroke-width:0.352778;stroke-miterlimit:4;stroke-dasharray:none;stroke-opacity:1"
           id="circle1623"
           cx="110.62358"
           cy="997.22272"
           r="7.4891772"
           transform="scale(1,-1)" />
        <circle
           style="fill:none;fill-opacity:1;stroke:#000000;stroke-width:0.352778;stroke-miterlimit:4;stroke-dasharray:none;stroke-opacity:1"
           id="circle1625"
           cx="80.623581"
           cy="997.22272"
           r="7.4891772"
           transform="scale(1,-1)" />
        <circle
           style="fill:none;fill-opacity:1;stroke:#000000;stroke-width:0.352778;stroke-miterlimit:4;stroke-dasharray:none;stroke-opacity:1"
           id="circle1627"
           cx="110.62358"
           cy="967.22272"
           r="7.4891772"
           transform="scale(1,-1)" />
        <circle
           style="fill:none;fill-opacity:1;stroke:#000000;stroke-width:0.352778;stroke-miterlimit:4;stroke-dasharray:none;stroke-opacity:1"
           id="circle1629"
           cx="80.623581"
           cy="967.22272"
           r="7.4891772"
           transform="scale(1,-1)" />
        <circle
           style="fill:none;fill-opacity:1;stroke:#000000;stroke-width:0.352778;stroke-miterlimit:4;stroke-dasharray:none;stroke-opacity:1"
           id="circle1631"
           cx="50.623585"
           cy="997.22272"
           r="7.4891772"
           transform="scale(1,-1)" />
        <circle
           style="fill:none;fill-opacity:1;stroke:#000000;stroke-width:0.352778;stroke-miterlimit:4;stroke-dasharray:none;stroke-opacity:1"
           id="circle1633"
           cx="20.623524"
           cy="997.22272"
           r="7.4891772"
           transform="scale(1,-1)" />
        <circle
           style="fill:none;fill-opacity:1;stroke:#000000;stroke-width:0.352778;stroke-miterlimit:4;stroke-dasharray:none;stroke-opacity:1"
           id="circle1635"
           cx="50.623585"
           cy="967.22272"
           r="7.4891772"
           transform="scale(1,-1)" />
        <circle
           style="fill:none;fill-opacity:1;stroke:#000000;stroke-width:0.352778;stroke-miterlimit:4;stroke-dasharray:none;stroke-opacity:1"
           id="circle1637"
           cx="20.623524"
           cy="967.22272"
           r="7.4891772"
           transform="scale(1,-1)" />
        <circle
           style="fill:none;fill-opacity:1;stroke:#000000;stroke-width:0.352778;stroke-miterlimit:4;stroke-dasharray:none;stroke-opacity:1"
           id="circle1639"
           cx="39.376476"
           cy="937.22272"
           r="7.4891772"
           transform="scale(-1)" />
        <circle
           style="fill:none;fill-opacity:1;stroke:#000000;stroke-width:0.352778;stroke-miterlimit:4;stroke-dasharray:none;stroke-opacity:1"
           id="circle1641"
           cx="9.3764162"
           cy="937.22272"
           r="7.4891772"
           transform="scale(-1)" />
        <circle
           style="fill:none;fill-opacity:1;stroke:#000000;stroke-width:0.352778;stroke-miterlimit:4;stroke-dasharray:none;stroke-opacity:1"
           id="circle1643"
           cx="110.62358"
           cy="937.22272"
           r="7.4891772"
           transform="scale(1,-1)" />
        <circle
           style="fill:none;fill-opacity:1;stroke:#000000;stroke-width:0.352778;stroke-miterlimit:4;stroke-dasharray:none;stroke-opacity:1"
           id="circle1645"
           cx="80.623581"
           cy="937.22272"
           r="7.4891772"
           transform="scale(1,-1)" />
        <circle
           style="fill:none;fill-opacity:1;stroke:#000000;stroke-width:0.352778;stroke-miterlimit:4;stroke-dasharray:none;stroke-opacity:1"
           id="circle1647"
           cx="50.623585"
           cy="937.22272"
           r="7.4891772"
           transform="scale(1,-1)" />
        <circle
           style="fill:none;fill-opacity:1;stroke:#000000;stroke-width:0.352778;stroke-miterlimit:4;stroke-dasharray:none;stroke-opacity:1"
           id="circle1649"
           cx="20.623524"
           cy="937.22272"
           r="7.4891772"
           transform="scale(1,-1)" />
      </g>
    </g>
  </g>
</svg>
